{"total_results":10000,"page":1,"total_pages":500,"results":[{"original_title":"Chick Fight","poster_path":"\/4ZocdxnOO6q2UbdKye2wgofLFhB.jpg","video":false,"vote_average":5.6,"vote_count":29,"release_date":"2020-11-13","title":"Chick Fight","popularity":1487.674,"adult":false,"backdrop_path":"\/fTDzKoQIh1HeyjfpG5AHMi2jxAJ.jpg","overview":"When Anna Wyncomb is introduced to an an underground, all-female fight club in order to turn the mess of her life around, she discovers she is much more personally connected to the history of the club than she could ever imagine.","genre_ids":[28,35],"id":682377,"original_language":"en"},{"original_title":"Hard Kill","poster_path":"\/ugZW8ocsrfgI95pnQ7wrmKDxIe.jpg","video":false,"vote_average":5,"vote_count":195,"release_date":"2020-10-23","title":"Hard Kill","popularity":1371.801,"adult":false,"id":724989,"backdrop_path":"\/86L8wqGMDbwURPni2t7FQ0nDjsH.jpg","genre_ids":[28,53],"overview":"The work of billionaire tech CEO Donovan Chalmers is so valuable that he hires mercenaries to protect it, and a terrorist group kidnaps his daughter just to get it.","original_language":"en"},{"original_title":"Greenland","poster_path":"\/bNo2mcvSwIvnx8K6y1euAc1TLVq.jpg","video":false,"vote_average":7.2,"vote_count":734,"release_date":"2020-07-29","title":"Greenland","popularity":1319.111,"adult":false,"id":524047,"backdrop_path":"\/2Fk3AB8E9dYIBc2ywJkxk8BTyhc.jpg","genre_ids":[28,53],"overview":"John Garrity, his estranged wife and their young son embark on a perilous journey to find sanctuary as a planet-killing comet hurtles toward Earth. Amid terrifying accounts of cities getting levelled, the Garrity's experience the best and worst in humanity. As the countdown to the global apocalypse approaches zero, their incredible trek culminates in a desperate and last-minute flight to a possible safe haven.","original_language":"en"},{"original_title":"반도","poster_path":"\/sy6DvAu72kjoseZEjocnm2ZZ09i.jpg","video":false,"vote_average":7,"vote_count":829,"release_date":"2020-07-15","title":"Peninsula","popularity":1115.279,"adult":false,"backdrop_path":"\/gEjNlhZhyHeto6Fy5wWy5Uk3A9D.jpg","overview":"A soldier and his team battle hordes of post-apocalyptic zombies in the wastelands of the Korean Peninsula.","genre_ids":[28,27,53],"id":581392,"original_language":"ko"},{"original_title":"Roald Dahl's The Witches","poster_path":"\/betExZlgK0l7CZ9CsCBVcwO1OjL.jpg","video":false,"vote_average":6.9,"overview":"In late 1967, a young orphaned boy goes to live with his loving grandma in the rural Alabama town of Demopolis. As the boy and his grandmother encounter some deceptively glamorous but thoroughly diabolical witches, she wisely whisks him away to a seaside resort. Regrettably, they arrive at precisely the same time that the world's Grand High Witch has gathered.","release_date":"2020-10-26","title":"Roald Dahl's The Witches","popularity":1041.851,"adult":false,"id":531219,"vote_count":817,"genre_ids":[14,10751,12,35,27],"backdrop_path":"\/8rIoyM6zYXJNjzGseT3MRusMPWl.jpg","original_language":"en"},{"original_title":"The SpongeBob Movie: Sponge on the Run","poster_path":"\/jlJ8nDhMhCYJuzOw3f52CP1W8MW.jpg","video":false,"vote_average":8,"overview":"When his best friend Gary is suddenly snatched away, SpongeBob takes Patrick on a madcap mission far beyond Bikini Bottom to save their pink-shelled pal.","release_date":"2020-08-14","title":"The SpongeBob Movie: Sponge on the Run","popularity":916.754,"adult":false,"id":400160,"backdrop_path":"\/wu1uilmhM4TdluKi2ytfz8gidHf.jpg","genre_ids":[16,14,12,35,10751],"vote_count":1594,"original_language":"en"},{"original_title":"Mulan","poster_path":"\/aKx1ARwG55zZ0GpRvU2WrGrCG9o.jpg","video":false,"vote_average":7.2,"overview":"When the Emperor of China issues a decree that one man per family must serve in the Imperial Chinese Army to defend the country from Huns, Hua Mulan, the eldest daughter of an honored warrior, steps in to take the place of her ailing father. She is spirited, determined and quick on her feet. Disguised as a man by the name of Hua Jun, she is tested every step of the way and must harness her innermost strength and embrace her true potential.","release_date":"2020-09-04","title":"Mulan","popularity":885.774,"adult":false,"backdrop_path":"\/qAKvUu2FSaDlnqznY4VOp5PmjIF.jpg","id":337401,"genre_ids":[28,12,18,14],"vote_count":3051,"original_language":"en"},{"original_title":"Welcome to Sudden Death","poster_path":"\/elZ6JCzSEvFOq4gNjNeZsnRFsvj.jpg","video":false,"vote_average":6.4,"overview":"Jesse Freeman is a former special forces officer and explosives expert now working a regular job as a security guard in a state-of-the-art basketball arena. Trouble erupts when a tech-savvy cadre of terrorists kidnap the team's owner and Jesse's daughter during opening night. Facing a ticking clock and impossible odds, it's up to Jesse to not only save them but also a full house of fans in this highly charged action thriller.","release_date":"2020-09-29","title":"Welcome to Sudden Death","popularity":857.014,"adult":false,"id":741067,"vote_count":174,"genre_ids":[28,53,12,18],"backdrop_path":"\/aO5ILS7qnqtFIprbJ40zla0jhpu.jpg","original_language":"en"},{"original_title":"Bronx","poster_path":"\/9HT9982bzgN5on1sLRmc1GMn6ZC.jpg","video":false,"vote_average":5.8,"vote_count":248,"release_date":"2020-10-30","title":"Rogue City","popularity":839.101,"adult":false,"backdrop_path":"\/gnf4Cb2rms69QbCnGFJyqwBWsxv.jpg","id":671039,"genre_ids":[53,28,18,80],"overview":"Caught in the crosshairs of police corruption and Marseille’s warring gangs, a loyal cop must protect his squad by taking matters into his own hands.","original_language":"fr"},{"original_title":"Fatman","poster_path":"\/4n8QNNdk4BOX9Dslfbz5Dy6j1HK.jpg","video":false,"vote_average":6.2,"vote_count":74,"release_date":"2020-11-13","title":"Fatman","popularity":706.766,"adult":false,"backdrop_path":"\/ckfwfLkl0CkafTasoRw5FILhZAS.jpg","id":602211,"genre_ids":[28,35],"overview":"A rowdy, unorthodox Santa Claus is fighting to save his declining business. Meanwhile, Billy, a neglected and precocious 12 year old, hires a hit man to kill Santa after receiving a lump of coal in his stocking.","original_language":"en"},{"original_title":"Historias lamentables","poster_path":"\/sp4zXS3x4wHyL8wm8zLioiBrxuR.jpg","video":false,"vote_average":7.3,"overview":"Four interconnected plots starring Ramón, a young heir; Bermejo, a tourist obsessed with order; Ayoub, an African immigrant pursuing his dream; and Alipio, a businessman addicted with gambling.","release_date":"2020-11-19","title":"Unfortunate Stories","popularity":958.738,"adult":false,"id":650747,"vote_count":32,"genre_ids":[35],"backdrop_path":"\/lM9f4CnWU4RIY8HiVrwmrNKJpYN.jpg","original_language":"es"},{"original_title":"Alien Xmas","poster_path":"\/3UGrAX6D1AMVra80jmUMUOLq8Qr.jpg","video":false,"vote_average":7.4,"overview":"A young elf mistakes a tiny alien for a Christmas gift, not knowing her new plaything has plans to destroy Earth's gravity — and steal all the presents.","release_date":"2020-11-20","title":"Alien Xmas","popularity":689.38,"adult":false,"id":656561,"vote_count":39,"genre_ids":[16,10751,14],"backdrop_path":"\/x2lPPe2aH76uyYVhkVCtzTMYawC.jpg","original_language":"en"},{"original_title":"After We Collided","poster_path":"\/kiX7UYfOpYrMFSAGbI6j1pFkLzQ.jpg","video":false,"vote_average":7.3,"vote_count":2166,"release_date":"2020-09-02","title":"After We Collided","popularity":695.178,"adult":false,"backdrop_path":"\/6hgItrYQEG33y0I7yP2SRl2ei4w.jpg","id":613504,"genre_ids":[10749,18],"overview":"Tessa finds herself struggling with her complicated relationship with Hardin; she faces a dilemma that could change their lives forever.","original_language":"en"},{"original_title":"Enola Holmes","poster_path":"\/riYInlsq2kf1AWoGm80JQW5dLKp.jpg","video":false,"vote_average":7.5,"vote_count":2744,"release_date":"2020-09-23","title":"Enola Holmes","popularity":703.246,"adult":false,"backdrop_path":"\/kMe4TKMDNXTKptQPAdOF0oZHq3V.jpg","overview":"While searching for her missing mother, intrepid teen Enola Holmes uses her sleuthing skills to outsmart big brother Sherlock and help a runaway lord.","genre_ids":[80,18,9648],"id":497582,"original_language":"en"},{"original_title":"Ava","poster_path":"\/qzA87Wf4jo1h8JMk9GilyIYvwsA.jpg","video":false,"vote_average":5.6,"vote_count":675,"release_date":"2020-07-02","title":"Ava","popularity":634.945,"adult":false,"backdrop_path":"\/54yOImQgj8i85u9hxxnaIQBRUuo.jpg","overview":"A black ops assassin is forced to fight for her own survival after a job goes dangerously wrong.","genre_ids":[28,80,18,53],"id":539885,"original_language":"en"},{"original_title":"Once Upon a Snowman","poster_path":"\/hddzYJtfYYeMDOQVcH58n8m1W3A.jpg","video":false,"vote_average":6.9,"vote_count":178,"release_date":"2020-10-23","title":"Once Upon a Snowman","popularity":612.292,"adult":false,"id":741074,"overview":"The previously untold origins of Olaf, the innocent and insightful, summer-loving snowman are revealed as we follow Olaf’s first steps as he comes to life and searches for his identity in the snowy mountains outside Arendelle.","genre_ids":[16,10751,35,14],"backdrop_path":"\/DA7gzvlBoxMNL0XmGgTZOyv67P.jpg","original_language":"en"},{"original_title":"Money Plane","poster_path":"\/6CoRTJTmijhBLJTUNoVSUNxZMEI.jpg","video":false,"vote_average":5.8,"overview":"A professional thief with $40 million in debt and his family's life on the line must commit one final heist - rob a futuristic airborne casino filled with the world's most dangerous criminals.","release_date":"2020-09-29","title":"Money Plane","popularity":587.363,"adult":false,"id":694919,"vote_count":197,"genre_ids":[28],"backdrop_path":"\/pq0JSpwyT2URytdFG0euztQPAyR.jpg","original_language":"en"},{"original_title":"Jingle Jangle: A Christmas Journey","poster_path":"\/5RbyHIVydD3Krmec1LlUV7rRjet.jpg","video":false,"vote_average":7,"vote_count":152,"release_date":"2020-11-06","title":"Jingle Jangle: A Christmas Journey","popularity":518.137,"adult":false,"backdrop_path":"\/6C7ZGYeR8QpT3X6C2RFEu6yiSKK.jpg","id":622855,"genre_ids":[10751,14,10402],"overview":"An imaginary world comes to life in a holiday tale of an eccentric toymaker, his adventurous granddaughter, and a magical invention that has the power to change their lives forever.","original_language":"en"},{"original_title":"The New Mutants","poster_path":"\/xrI4EnZWftpo1B7tTvlMUXVOikd.jpg","video":false,"vote_average":6.4,"vote_count":903,"release_date":"2020-08-26","title":"The New Mutants","popularity":581.509,"adult":false,"id":340102,"backdrop_path":"\/eCIvqa3QVCx6H09bdeOS8Al2Sqy.jpg","genre_ids":[28,878,27,12],"overview":"Five young mutants, just discovering their abilities while held in a secret facility against their will, fight to escape their past sins and save themselves.","original_language":"en"},{"original_title":"VFW","poster_path":"\/AnVD7Gn14uOTQhcc5xYZGQ9DRvS.jpg","video":false,"vote_average":5.1,"vote_count":15,"release_date":"2020-10-14","title":"VFW","popularity":541.676,"adult":false,"id":624779,"overview":"A typical night for veterans at a VFW turns into an all-out battle for survival when a desperate teen runs into the bar with a bag of stolen drugs. When a gang of violent punks come looking for her, the vets use every weapon at their disposal to protect the girl and themselves from an unrelenting attack.","genre_ids":[28,53,27],"backdrop_path":"\/h5sUE9jqoYrjsFjANJXL0gpZGye.jpg","original_language":"en"}]}
